Toy example of a coreference analysis in rezonateR • rezonateR
…
As examples of the content inside the imported object, here are the
imported chunkDF members and trackDF:

head(rez007$chunkDF)
#> $refexpr
#> # A tibble: 64 × 23
#>    id          doc   name   nest kind  place text  trans…¹ endNote order negPl…²
#>  * <chr>       <chr> <chr> <dbl> <chr> <chr> <chr> <chr>   <chr>   <chr> <chr>  
#>  1 35E3E0AB68… sbc0… Chun…     2 ""    ""    Stay… Stay u… ""      ""    ""     
#>  2 1F6B5F0B3F… sbc0… Chun…     3 ""    ""    the … the pu… ""      ""    ""     
#>  3 24FE2B219B… sbc0… Chun…     2 ""    ""    gett… gettin… ""      ""    ""     
#>  4 158B579C1B… sbc0… Chun…     1 ""    ""    the … the mo… ""      ""    ""     
#>  5 2B6521E881… sbc0… Chun…     1 ""    ""    all … all th… ""      ""    ""     
#>  6 5B854594DD… sbc0… Chun…     2 ""    ""    the … the wa… ""      ""    ""     
#>  7 189552EBB1… sbc0… Chun…     2 ""    ""    the … the on… ""      ""    ""     
#>  8 313D141E6D… sbc0… Chun…     1 ""    ""    the … the ho… ""      ""    ""     
#>  9 1E970FF5D9… sbc0… Chun…     1 ""    ""    all … all th… ""      ""    ""     
#> 10 85C4F230E6… sbc0… Chun…     2 ""    ""    what… what t… ""      ""    ""     
#> # … with 54 more rows, 12 more variables: corpusSeq <chr>, pSentOrder <chr>,
#> #   POS_dft <chr>, tokenSeq <chr>, chunkType <chr>, turnOrder <chr>,
#> #   largerChunk <chr>, tokenOrderFirst <dbl>, docTokenSeqFirst <dbl>,
#> #   tokenOrderLast <dbl>, docTokenSeqLast <dbl>, layer <chr>, and abbreviated
#> #   variable names ¹​transcript, ²​negPlace
#> # ℹ Use `print(n = ...)` to see more rows, and `colnames()` to see all variable names
#> 
#> $verb
#> # A tibble: 132 × 23
#>    id          doc   name   nest kind  place text  trans…¹ endNote order negPl…²
#>  * <chr>       <chr> <chr> <dbl> <chr> <chr> <chr> <chr>   <chr>   <chr> <chr>  
#>  1 210FB26A31… sbc0… Chun…     1 ""    ""    said  said    ""      ""    ""     
#>  2 744AD104FE… sbc0… Chun…     1 ""    ""    was … was n'… ""      ""    ""     
#>  3 15B9BB5D50… sbc0… Chun…     1 ""    ""    Stay  Stay    ""      ""    ""     
#>  4 1A14BB68ED… sbc0… Chun…     1 ""    ""    defe… defeats ""      ""    ""     
#>  5 2CCD5F5A95… sbc0… Chun…     1 ""    ""    know  know    ""      ""    ""     
#>  6 1F1135429F… sbc0… Chun…     1 ""    ""    's    's      ""      ""    ""     
#>  7 2F857247FD… sbc0… Chun…     1 ""    ""    a ha… a hard… ""      ""    ""     
#>  8 30F18BABDB… sbc0… Chun…     1 ""    ""    do n… do n't] ""      ""    ""     
#>  9 94188DEA38… sbc0… Chun…     1 ""    ""    is    i:s]    ""      ""    ""     
#> 10 13A37EC506… sbc0… Chun…     1 ""    ""    do n… do n't… ""      ""    ""     
#> # … with 122 more rows, 12 more variables: corpusSeq <chr>, pSentOrder <chr>,
#> #   POS_dft <chr>, tokenSeq <chr>, chunkType <chr>, turnOrder <chr>,
#> #   largerChunk <chr>, tokenOrderFirst <dbl>, docTokenSeqFirst <dbl>,
#> #   tokenOrderLast <dbl>, docTokenSeqLast <dbl>, layer <chr>, and abbreviated
#> #   variable names ¹​transcript, ²​negPlace
#> # ℹ Use `print(n = ...)` to see more rows, and `colnames()` to see all variable names
…
