Tracking down coreference phenomena • rezonateR
…
Now we can safely move this information to the verb table:

rez007$chunkDF$verb = rez007$chunkDF$verb %>%
  rez_left_join(rez007$trackDF$default %>% select(id, text, verbID),
                by = c(id = "verbID"),
                suffix = c("", "_subj"),
                df2Address = "trackDF/default",
                fkey = "id",
                df2key = "verbID",
                rezrObj = rez007) %>%
  rename(subjID = id_subj, subjText = text_subj)
rez007$chunkDF$verb %>% select(id, text, subjID, subjText)
#> # A tibble: 163 × 4
#>    id            text                  subjID        subjText                   
#>    <chr>         <chr>                 <chr>         <chr>                      
#>  1 210FB26A315A  said                  NA            NA                         
#>  2 744AD104FE64  was n't gon na do     92F20ACA5F06  I                          
#>  3 744AD104FE64  was n't gon na do     1F74D2B049FA4 this                       
#>  4 15B9BB5D5086C Stay                  2485C4F740FC0 <0>                        
#>  5 1A14BB68EDAC9 defeats               6B37B5A80F2A  <0>                        
#>  6 1A14BB68EDAC9 defeats               259C2C2979B6C the purpose of getting up …
#>  7 2CCD5F5A950BE know                  4B32FD84BA10  I                          
#>  8 1F1135429F347 's                    3098AB24A0FA6 it                         
#>  9 1F1135429F347 's                    2D5885FCA1E15 a hard habit to break      
#> 10 2F857247FD9D5 a hard habit to break NA            NA                         
#> # … with 153 more rows
#> # ℹ Use `print(n = ...)` to see more rows
…
