Dealing with Trees • rezonateR
…
treeLink: The links between trees. Unlike regular links
(such as those in trails or resonances) treeLinks
can, and often are, annotated.

This section will examine each of these in detail.

Let’s first take a quick look at our treeDF:

head(rez007$treeDF)
#> $default
#> # A tibble: 114 × 10
#>    id       doc   name  maxLevel tokenOrderFirst docTokenSeqFirst tokenOrderLast
#>    <chr>    <chr> <chr>    <dbl>           <dbl>            <dbl>          <dbl>
#>  1 123586E… sbc0… Tree…        1               1                1             19
#>  2 79D2B43… sbc0… Tree…        1               1                4             11
#>  3 36F1EB5… sbc0… Tree…        1               1                4             11
#>  4 1308588… sbc0… Tree…        1               1               15              6
#>  5 1B81715… sbc0… Tree…        1               1               21             13
#>  6 8A717C8… sbc0… Tree…        1               1               34              4
#>  7 345C263… sbc0… Tree…        1               1               38             10
#>  8 24D50AF… sbc0… Tree…        1               1               48              5
#>  9 35E1362… sbc0… Tree…        1               1               53              3
#> 10 1301FAB… sbc0… Tree…        1               1               56             10
#> # … with 104 more rows, and 3 more variables: docTokenSeqLast <dbl>,
#> #   text <chr>, transcript <chr>

The main column of interest that you might not understand is
maxLevel. You can actually see maxLevel by
looking at Rezonator. The root of a tree has level 0,
whereas the next one down has a level of 1. Because of our
policy of marking only one predicate-arguments structure per tree, the
maxLevel always comes out as 1.

Now onto our treeEntrys:

head(rez007$treeEntryDF)
#> $default
#> # A tibble: 1,525 × 15
#>    id        doc   tree  order sourceLink level tokenOrderFirst docTokenSeqFirst
#>    <chr>     <chr> <chr> <dbl> <chr>      <dbl>           <dbl>            <dbl>
#>  1 3419C1EF… sbc0… 1235…     0 ""            -1               1                1
#>  2 272B7E44… sbc0… 1235…     1 ""            -1               2                2
#>  3 9403F199… sbc0… 1235…     2 ""            -1               3                3
#>  4 1FA81754… sbc0… 36F1…     0 ""            -1               1                4
#>  5 E5564F08… sbc0… 1235…     3 "D98B08C2…     1               1                4
#>  6 87560FEB… sbc0… 79D2…     0 "D4796592…     1               1                4
#>  7 2198692B… sbc0… 36F1…     1 ""            -1               2                5
#>  8 29A7D8B3… sbc0… 79D2…     1 ""             0               2                5
#>  9 3005263A… sbc0… 1235…     4 ""             0               2                5
#> 10 163E2115… sbc0… 36F1…     2 "2234E289…     1               3                6
#> # … with 1,515 more rows, and 7 more variables: tokenOrderLast <dbl>,
#> #   docTokenSeqLast <dbl>, text <chr>, transcript <chr>, parent <chr>,
#> #   subtype <chr>, Relation <chr>
…
