Functions related to mentions of the same entity in previous/following context in track chains. — lastMentionUnit • rezonateR
…
unitDF = sbc007$unitDF)) #Additional argument for unitFinal protocol
#> Error in .f(df, ...): ℹ In argument: `wordsToLastMention = tokensToLastMention(...)`.
#> Caused by error in `grabFromDF()`:
#> ! object 'docWordSeqLast' not found
#Get the character length of the previous mention
sbc007$trackDF$default = sbc007$trackDF$default %>%
addFieldLocal(fieldName = "prevLength",
              expression = nchar(getPrevMentionField(text)),
              fieldaccess = "auto")
#Get the number of zero mentions and zero status-matching mentions in the last 20 units
sbc007$trackDF$default %>%
rez_mutate(isZero = text == "<0>") %>%
rez_mutate(noPrevZeroMentionsIn20 = countPrevMentionsIf(20, isZero),
            noPrevZeroMentionsIn20 = countPrevMentionsMatch(20, isZero))
#> # A tibble: 236 × 37
#>    id        doc   chain sourceLink token gapWords charCount tokenCount gapUnits
#>    <chr>     <chr> <chr> <chr>      <chr> <chr>        <dbl>      <dbl> <chr>   
#>  1 1096E4AF… sbc0… 278D… ""         37EF… N/A              1          1 N/A     
#>  2 92F20ACA… sbc0… 278D… "174E697E… 9363… 2                1          1 0       
#>  3 7E5BB650… sbc0… 2B67… ""         744A… N/A             17          5 N/A     
#>  4 1F74D2B0… sbc0… 2A01… "52452779… 1265… N/A              4          1 N/A     
#>  5 2485C4F7… sbc0… 278D… "CB1D9787… 2113… 10               3          1 1       
#>  6 1BF2260B… sbc0… 2A01… ""         35E3… 5               12          3 1       
#>  7 6B37B5A8… sbc0… 2A01… "ED8C9230… 233E… 5                3          1 1       
#>  8 259C2C29… sbc0… 251A… ""         1F6B… N/A             40          8 N/A     
#>  9 1D1F2B70… sbc0… 10FA… ""         24FE… N/A             25          5 N/A     
#> 10 1FA38066… sbc0… 3067… ""         158B… N/A             11          2 N/A     
#> # ℹ 226 more rows
#> # ℹ 28 more variables: kind <chr>, place <chr>, text <chr>, transcript <chr>,
#> #   endNote <chr>, order <chr>, negPlace <chr>, corpusSeq <chr>,
#> #   pSentOrder <chr>, POS_dft <chr>, tokenSeq <chr>, chunkType <chr>,
#> #   turnOrder <chr>, largerChunk <chr>, tokenOrderFirst <dbl>,
#> #   tokenOrderLast <dbl>, docTokenSeqFirst <dbl>, docTokenSeqLast <dbl>,
#> #   chainCreateSeq <dbl>, name <chr>, chainSize <dbl>, layer <chr>, …
…
